<?xml version="1.0" encoding="UTF-8" standalone="no"?>
<!-- Created with Inkscape (http://www.inkscape.org/) -->

<svg
   xmlns:dc="http://purl.org/dc/elements/1.1/"
   xmlns:cc="http://creativecommons.org/ns#"
   xmlns:rdf="http://www.w3.org/1999/02/22-rdf-syntax-ns#"
   xmlns:svg="http://www.w3.org/2000/svg"
   xmlns="http://www.w3.org/2000/svg"
   xmlns:xlink="http://www.w3.org/1999/xlink"
   xmlns:sodipodi="http://sodipodi.sourceforge.net/DTD/sodipodi-0.dtd"
   xmlns:inkscape="http://www.inkscape.org/namespaces/inkscape"
   width="640"
   height="520"
   id="svg2"
   version="1.1"
   inkscape:version="0.48.2 r9819"
   sodipodi:docname="HTML5-Spezifikations-Übersicht.svg"
   inkscape:export-filename="/home/peter/Brainfire/public_html/OpenSource/SpecGraph/graph.png"
   inkscape:export-xdpi="90"
   inkscape:export-ydpi="90">
  <defs
     id="defs4">
    <linearGradient
       id="linearGradient4501">
      <stop
         style="stop-color:#FFFFFF;stop-opacity:1;"
         offset="0"
         id="stop4503" />
      <stop
         style="stop-color:#FFFFFF;stop-opacity:0;"
         offset="1"
         id="stop4505" />
    </linearGradient>
    <linearGradient
       inkscape:collect="always"
       xlink:href="#linearGradient4501"
       id="linearGradient4507"
       x1="912"
       y1="100.36218"
       x2="1280"
       y2="100.36218"
       gradientUnits="userSpaceOnUse"
       gradientTransform="matrix(0.69565217,0,0,1.8181818,-622.0726,-1302.4767)" />
    <linearGradient
       inkscape:collect="always"
       xlink:href="#linearGradient4501-7"
       id="linearGradient4507-1"
       x1="912"
       y1="100.36218"
       x2="1280"
       y2="100.36218"
       gradientUnits="userSpaceOnUse"
       gradientTransform="matrix(0.69565217,0,0,1.8181818,-622.0726,-1302.4767)" />
    <linearGradient
       id="linearGradient4501-7">
      <stop
         style="stop-color:#FFFFFF;stop-opacity:1;"
         offset="0"
         id="stop4503-4" />
      <stop
         style="stop-color:#FFFFFF;stop-opacity:0;"
         offset="1"
         id="stop4505-0" />
    </linearGradient>
    <linearGradient
       y2="100.36218"
       x2="1280"
       y1="100.36218"
       x1="912"
       gradientTransform="matrix(0.69565217,0,0,1.8181818,-624.31141,-1299.8622)"
       gradientUnits="userSpaceOnUse"
       id="linearGradient3225"
       xlink:href="#linearGradient4501-7"
       inkscape:collect="always" />
  </defs>
  <sodipodi:namedview
     id="base"
     pagecolor="#ffffff"
     bordercolor="#666666"
     borderopacity="1.0"
     inkscape:pageopacity="1"
     inkscape:pageshadow="2"
     inkscape:zoom="0.70710678"
     inkscape:cx="715.15498"
     inkscape:cy="429.13411"
     inkscape:document-units="px"
     inkscape:current-layer="layer1"
     showgrid="true"
     inkscape:window-width="1680"
     inkscape:window-height="979"
     inkscape:window-x="-4"
     inkscape:window-y="-4"
     inkscape:window-maximized="1"
     showguides="true"
     inkscape:guide-bbox="true" />
  <metadata
     id="metadata7">
    <rdf:RDF>
      <cc:Work
         rdf:about="">
        <dc:format>image/svg+xml</dc:format>
        <dc:type
           rdf:resource="http://purl.org/dc/dcmitype/StillImage" />
        <dc:title />
      </cc:Work>
    </rdf:RDF>
  </metadata>
  <g
     inkscape:label="Ebene 1"
     inkscape:groupmode="layer"
     id="layer1"
     transform="translate(0,-12.362182)">
    <path
       sodipodi:type="arc"
       style="fill:#000000;fill-opacity:0;stroke:#000000;stroke-opacity:0.19607843000000000;stroke-width:6.49781692;stroke-miterlimit:4;stroke-dasharray:12.99563385,6.49781692;stroke-dashoffset:0"
       id="path3781-5"
       sodipodi:cx="512"
       sodipodi:cy="512"
       sodipodi:rx="496"
       sodipodi:ry="496"
       d="m 1008,512 c 0,273.93324 -222.06676,496 -496,496 C 238.06676,1008 16,785.93324 16,512 16,238.06676 238.06676,16 512,16 c 273.93324,0 496,222.06676 496,496 z"
       transform="matrix(1.8467741,0,0,1.8467741,-595.54839,-417.1862)" />
    <rect
       style="fill:url(#linearGradient3225);fill-opacity:1;stroke:none"
       id="rect4499"
       width="256"
       height="320"
       x="10.123367"
       y="-1277.3856"
       transform="matrix(0,1,-1,0,0,0)" />
    <path
       sodipodi:type="arc"
       style="fill:none;stroke:#ffe059;stroke-width:11.80952418;stroke-miterlimit:4;stroke-opacity:1;stroke-dasharray:23.61904837,11.80952418;stroke-dashoffset:0"
       id="path3781"
       sodipodi:cx="512"
       sodipodi:cy="512"
       sodipodi:rx="496"
       sodipodi:ry="496"
       d="m 1008,512 c 0,273.93324 -222.06676,496 -496,496 C 238.06676,1008 16,785.93324 16,512 16,238.06676 238.06676,16 512,16 c 273.93324,0 496,222.06676 496,496 z"
       transform="matrix(1.016129,0,0,1.016129,-0.258064,12.104134)" />
    <path
       sodipodi:type="arc"
       style="fill:none;stroke:#40bd4e;stroke-width:16.81356049;stroke-miterlimit:4;stroke-opacity:1;stroke-dasharray:33.62711946, 16.81355973;stroke-dashoffset:0"
       id="path3781-9"
       sodipodi:cx="512"
       sodipodi:cy="512"
       sodipodi:rx="496"
       sodipodi:ry="496"
       d="m 1008,512 c 0,273.93324 -222.06676,496 -496,496 C 238.06676,1008 16,785.93324 16,512 16,238.06676 238.06676,16 512,16 c 273.93324,0 496,222.06676 496,496 z"
       transform="matrix(0.71370966,0,0,0.71370966,28.580645,166.94283)" />
    <path
       sodipodi:type="arc"
       style="fill:none;stroke:#18597a;stroke-width:30.6804149;stroke-miterlimit:4;stroke-opacity:1;stroke-dasharray:61.3608298,30.6804149;stroke-dashoffset:0"
       id="path3781-9-3"
       sodipodi:cx="512"
       sodipodi:cy="512"
       sodipodi:rx="496"
       sodipodi:ry="496"
       d="m 1008,512 c 0,273.93324 -222.06676,496 -496,496 C 238.06676,1008 16,785.93324 16,512 16,238.06676 238.06676,16 512,16 c 273.93324,0 496,222.06676 496,496 z"
       transform="matrix(0.391129,0,0,0.391129,57.741936,332.10413)" />
    <g
       id="g3916"
       transform="translate(-496,-192)">
      <path
         transform="matrix(0.75,0,0,0.75,192,112.36218)"
         d="m 896,464 c 0,35.34622 -28.65378,64 -64,64 -35.34622,0 -64,-28.65378 -64,-64 0,-35.34622 28.65378,-64 64,-64 35.34622,0 64,28.65378 64,64 z"
         sodipodi:ry="64"
         sodipodi:rx="64"
         sodipodi:cy="464"
         sodipodi:cx="832"
         id="path3900"
         style="fill:#FFFFFF;fill-opacity:1;stroke:#18597a;stroke-width:5.33333349;stroke-miterlimit:4;stroke-opacity:1;stroke-dasharray:5.33333333, 5.33333333;stroke-dashoffset:0"
         sodipodi:type="arc" />
      <text
         sodipodi:linespacing="125%"
         id="text3902"
         y="454.73511"
         x="815.30768"
         style="font-size:40px;font-style:normal;font-weight:normal;line-height:125%;letter-spacing:0px;word-spacing:0px;fill:#FFFFFF;fill-opacity:1;stroke:none;font-family:DejaVu Sans"
         xml:space="preserve"><tspan
           id="tspan3906"
           style="font-size:17px;font-style:normal;font-variant:normal;font-weight:bold;font-stretch:normal;text-align:center;text-anchor:middle;fill:#000000;font-family:DejaVu Sans;-inkscape-font-specification:DejaVu Sans Bold"
           y="454.73511"
           x="815.30768"
           sodipodi:role="line">Canvas</tspan><tspan
           id="tspan3910"
           style="font-size:17px;font-style:normal;font-variant:normal;font-weight:bold;font-stretch:normal;text-align:center;text-anchor:middle;fill:#000000;font-family:DejaVu Sans;-inkscape-font-specification:DejaVu Sans Bold"
           y="475.98511"
           x="815.30768"
           sodipodi:role="line">2D API</tspan></text>
    </g>
    <g
       id="g3916-0"
       transform="translate(-208,-95.999998)">
      <path
         transform="matrix(0.75,0,0,0.75,192,112.36218)"
         d="m 896,464 c 0,35.34622 -28.65378,64 -64,64 -35.34622,0 -64,-28.65378 -64,-64 0,-35.34622 28.65378,-64 64,-64 35.34622,0 64,28.65378 64,64 z"
         sodipodi:ry="64"
         sodipodi:rx="64"
         sodipodi:cy="464"
         sodipodi:cx="832"
         id="path3900-4"
         style="fill:#FFFFFF;fill-opacity:1;stroke:#18597a;stroke-width:5.33333349;stroke-miterlimit:4;stroke-opacity:1;stroke-dasharray:5.33333333, 5.33333333;stroke-dashoffset:0"
         sodipodi:type="arc" />
      <text
         sodipodi:linespacing="125%"
         id="text3902-0"
         y="444.73511"
         x="815.30768"
         style="font-size:40px;font-style:normal;font-weight:normal;line-height:125%;letter-spacing:0px;word-spacing:0px;fill:#FFFFFF;fill-opacity:1;stroke:none;font-family:DejaVu Sans"
         xml:space="preserve"><tspan
           style="font-size:17px;font-style:normal;font-variant:normal;font-weight:bold;font-stretch:normal;text-align:center;text-anchor:middle;fill:#000000;font-family:DejaVu Sans;-inkscape-font-specification:DejaVu Sans Bold"
           y="444.73511"
           x="815.30768"
           sodipodi:role="line"
           id="tspan3956">HTML5</tspan><tspan
           style="font-size:17px;font-style:normal;font-variant:normal;font-weight:bold;font-stretch:normal;text-align:center;text-anchor:middle;fill:#000000;font-family:DejaVu Sans;-inkscape-font-specification:DejaVu Sans Bold"
           y="465.98511"
           x="815.30768"
           sodipodi:role="line"
           id="tspan3964">Micro-</tspan><tspan
           style="font-size:17px;font-style:normal;font-variant:normal;font-weight:bold;font-stretch:normal;text-align:center;text-anchor:middle;fill:#000000;font-family:DejaVu Sans;-inkscape-font-specification:DejaVu Sans Bold"
           y="487.23511"
           x="815.30768"
           sodipodi:role="line"
           id="tspan3962">Data</tspan></text>
    </g>
    <g
       id="g3916-0-7"
       transform="translate(-177.30768,183.62707)">
      <path
         transform="matrix(0.75,0,0,0.75,192,112.36218)"
         d="m 896,464 c 0,35.34622 -28.65378,64 -64,64 -35.34622,0 -64,-28.65378 -64,-64 0,-35.34622 28.65378,-64 64,-64 35.34622,0 64,28.65378 64,64 z"
         sodipodi:ry="64"
         sodipodi:rx="64"
         sodipodi:cy="464"
         sodipodi:cx="832"
         id="path3900-4-5"
         style="fill:#FFFFFF;fill-opacity:1;stroke:#18597a;stroke-width:5.33333349;stroke-miterlimit:4;stroke-opacity:1;stroke-dasharray:5.33333333, 5.33333333;stroke-dashoffset:0"
         sodipodi:type="arc" />
      <text
         sodipodi:linespacing="125%"
         id="text3902-0-8"
         y="452.73511"
         x="816.05768"
         style="font-size:40px;font-style:normal;font-weight:normal;line-height:125%;letter-spacing:0px;word-spacing:0px;fill:#ffffff;fill-opacity:1;stroke:none;font-family:DejaVu Sans"
         xml:space="preserve"><tspan
           style="font-size:17px;font-style:normal;font-variant:normal;font-weight:bold;font-stretch:normal;text-align:center;text-anchor:middle;fill:#000000;font-family:DejaVu Sans;-inkscape-font-specification:DejaVu Sans Bold"
           y="452.73511"
           x="816.05768"
           sodipodi:role="line"
           id="tspan3962-1">Web</tspan><tspan
           style="font-size:17px;font-style:normal;font-variant:normal;font-weight:bold;font-stretch:normal;text-align:center;letter-spacing:-0.60000002px;text-anchor:middle;fill:#000000;font-family:DejaVu Sans;-inkscape-font-specification:DejaVu Sans Bold"
           y="473.98511"
           x="815.75769"
           sodipodi:role="line"
           id="tspan4004">Messages</tspan></text>
    </g>
    <g
       transform="translate(-432,-44.000001)"
       id="g4042-3">
      <path
         transform="matrix(0.75,0,0,0.75,430.69232,-168.01075)"
         d="m 896,464 c 0,35.34622 -28.65378,64 -64,64 -35.34622,0 -64,-28.65378 -64,-64 0,-35.34622 28.65378,-64 64,-64 35.34622,0 64,28.65378 64,64 z"
         sodipodi:ry="64"
         sodipodi:rx="64"
         sodipodi:cy="464"
         sodipodi:cx="832"
         id="path3900-4-5-5-8"
         style="fill:#FFFFFF;fill-opacity:1;stroke:#ff7100;stroke-width:5.33333349;stroke-miterlimit:4;stroke-opacity:1;stroke-dasharray:5.33333333, 5.33333333;stroke-dashoffset:0"
         sodipodi:type="arc" />
      <text
         sodipodi:linespacing="125%"
         id="text3902-0-8-6-6"
         y="184.36218"
         x="1056"
         style="font-size:40px;font-style:normal;font-weight:normal;line-height:125%;letter-spacing:0px;word-spacing:0px;fill:#FFFFFF;fill-opacity:1;stroke:none;font-family:DejaVu Sans"
         xml:space="preserve"><tspan
           style="font-size:17px;font-style:normal;font-variant:normal;font-weight:bold;font-stretch:normal;text-align:center;text-anchor:middle;fill:#000000;font-family:DejaVu Sans;-inkscape-font-specification:DejaVu Sans Bold"
           y="184.36218"
           x="1056"
           sodipodi:role="line"
           id="tspan4004-2-3">Web GL</tspan></text>
    </g>
    <g
       id="g4043"
       transform="translate(4,-20)">
      <path
         transform="matrix(0.75,0,0,0.75,396,268.36218)"
         d="m 896,464 c 0,35.34622 -28.65378,64 -64,64 -35.34622,0 -64,-28.65378 -64,-64 0,-35.34622 28.65378,-64 64,-64 35.34622,0 64,28.65378 64,64 z"
         sodipodi:ry="64"
         sodipodi:rx="64"
         sodipodi:cy="464"
         sodipodi:cx="832"
         id="path3900-4-0-5"
         style="fill:#FFFFFF;fill-opacity:1;stroke:#18597a;stroke-width:5.33333349;stroke-miterlimit:4;stroke-opacity:1;stroke-dasharray:5.33333333, 5.33333333;stroke-dashoffset:0"
         sodipodi:type="arc" />
      <text
         sodipodi:linespacing="125%"
         id="text3902-0-87-5"
         y="622.73511"
         x="1019.3077"
         style="font-size:40px;font-style:normal;font-weight:normal;line-height:125%;letter-spacing:0px;word-spacing:0px;fill:#FFFFFF;fill-opacity:1;stroke:none;font-family:DejaVu Sans"
         xml:space="preserve"><tspan
           style="font-size:17px;font-style:normal;font-variant:normal;font-weight:bold;font-stretch:normal;text-align:center;text-anchor:middle;fill:#000000;font-family:DejaVu Sans;-inkscape-font-specification:DejaVu Sans Bold"
           y="622.73511"
           x="1019.3077"
           sodipodi:role="line"
           id="tspan3962-5-1">SVG</tspan></text>
    </g>
    <g
       id="g4042-7"
       transform="translate(112,330)">
      <path
         transform="matrix(0.75,0,0,0.75,430.69232,-166.01075)"
         d="m 896,464 c 0,35.34622 -28.65378,64 -64,64 -35.34622,0 -64,-28.65378 -64,-64 0,-35.34622 28.65378,-64 64,-64 35.34622,0 64,28.65378 64,64 z"
         sodipodi:ry="64"
         sodipodi:rx="64"
         sodipodi:cy="464"
         sodipodi:cx="832"
         id="path3900-4-5-5-82"
         style="fill:#FFFFFF;fill-opacity:1;stroke:#ff7100;stroke-width:5.33333349;stroke-miterlimit:4;stroke-opacity:1;stroke-dasharray:5.33333333, 5.33333333;stroke-dashoffset:0"
         sodipodi:type="arc" />
      <text
         sodipodi:linespacing="125%"
         id="text3902-0-8-6-4"
         y="164.36218"
         x="1056"
         style="font-size:40px;font-style:normal;font-weight:normal;line-height:125%;letter-spacing:0px;word-spacing:0px;fill:#FFFFFF;fill-opacity:1;stroke:none;font-family:DejaVu Sans"
         xml:space="preserve"><tspan
           style="font-size:17px;font-style:normal;font-variant:normal;font-weight:bold;font-stretch:normal;text-align:center;text-anchor:middle;fill:#000000;font-family:DejaVu Sans;-inkscape-font-specification:DejaVu Sans Bold"
           y="164.36218"
           x="1056"
           sodipodi:role="line"
           id="tspan4166">MVC</tspan><tspan
           style="font-size:17px;font-style:normal;font-variant:normal;font-weight:bold;font-stretch:normal;text-align:center;text-anchor:middle;fill:#000000;font-family:DejaVu Sans;-inkscape-font-specification:DejaVu Sans Bold"
           y="185.61218"
           x="1056"
           sodipodi:role="line"
           id="tspan4338">Java-</tspan><tspan
           style="font-size:17px;font-style:normal;font-variant:normal;font-weight:bold;font-stretch:normal;text-align:center;text-anchor:middle;fill:#000000;font-family:DejaVu Sans;-inkscape-font-specification:DejaVu Sans Bold"
           y="206.86218"
           x="1056"
           sodipodi:role="line"
           id="tspan4660">Script</tspan></text>
    </g>
    <g
       id="g3916-0-4-2-4"
       transform="translate(-367.30768,485.62707)">
      <path
         transform="matrix(0.75,0,0,0.75,192,112.36218)"
         d="m 896,464 c 0,35.34622 -28.65378,64 -64,64 -35.34622,0 -64,-28.65378 -64,-64 0,-35.34622 28.65378,-64 64,-64 35.34622,0 64,28.65378 64,64 z"
         sodipodi:ry="64"
         sodipodi:rx="64"
         sodipodi:cy="464"
         sodipodi:cx="832"
         id="path3900-4-0-5-7"
         style="fill:#FFFFFF;fill-opacity:1;stroke:#18597a;stroke-width:5.33333349;stroke-miterlimit:4;stroke-opacity:1;stroke-dasharray:5.33333333, 5.33333333;stroke-dashoffset:0"
         sodipodi:type="arc" />
      <text
         sodipodi:linespacing="125%"
         id="text3902-0-87-5-4"
         y="454.73511"
         x="815.30768"
         style="font-size:40px;font-style:normal;font-weight:normal;line-height:125%;letter-spacing:0px;word-spacing:0px;fill:#FFFFFF;fill-opacity:1;stroke:none;font-family:DejaVu Sans"
         xml:space="preserve"><tspan
           style="font-size:17px;font-style:normal;font-variant:normal;font-weight:bold;font-stretch:normal;text-align:center;text-anchor:middle;fill:#000000;font-family:DejaVu Sans;-inkscape-font-specification:DejaVu Sans Bold"
           y="454.73511"
           x="815.30768"
           sodipodi:role="line"
           id="tspan3962-5-1-1">Geo-</tspan><tspan
           style="font-size:17px;font-style:normal;font-variant:normal;font-weight:bold;font-stretch:normal;text-align:center;text-anchor:middle;fill:#000000;font-family:DejaVu Sans;-inkscape-font-specification:DejaVu Sans Bold"
           y="475.98511"
           x="815.30768"
           sodipodi:role="line"
           id="tspan4197">Location</tspan></text>
    </g>
    <g
       id="g4283"
       transform="translate(176,-47.999998)">
      <path
         transform="matrix(0.75,0,0,0.75,-336,-191.63782)"
         d="m 896,464 c 0,35.34622 -28.65378,64 -64,64 -35.34622,0 -64,-28.65378 -64,-64 0,-35.34622 28.65378,-64 64,-64 35.34622,0 64,28.65378 64,64 z"
         sodipodi:ry="64"
         sodipodi:rx="64"
         sodipodi:cy="464"
         sodipodi:cx="832"
         id="path3900-4-0-5-4"
         style="fill:#FFFFFF;fill-opacity:1;stroke:#18597a;stroke-width:5.33333349;stroke-miterlimit:4;stroke-opacity:1;stroke-dasharray:5.33333333, 5.33333333;stroke-dashoffset:0"
         sodipodi:type="arc" />
      <text
         sodipodi:linespacing="125%"
         id="text3902-0-87-5-3"
         y="150.73511"
         x="287.30768"
         style="font-size:40px;font-style:normal;font-weight:normal;line-height:125%;letter-spacing:0px;word-spacing:0px;fill:#ffffff;fill-opacity:1;stroke:none;font-family:DejaVu Sans"
         xml:space="preserve"><tspan
           style="font-size:17px;font-style:normal;font-variant:normal;font-weight:bold;font-stretch:normal;text-align:center;text-anchor:middle;fill:#000000;font-family:DejaVu Sans;-inkscape-font-specification:DejaVu Sans Bold"
           y="150.73511"
           x="287.30768"
           sodipodi:role="line"
           id="tspan3962-5-1-2">Indexed</tspan><tspan
           style="font-size:17px;font-style:normal;font-variant:normal;font-weight:bold;font-stretch:normal;text-align:center;letter-spacing:-0.38999999px;text-anchor:middle;fill:#000000;font-family:DejaVu Sans;-inkscape-font-specification:DejaVu Sans Bold"
           y="171.98511"
           x="287.11267"
           sodipodi:role="line"
           id="tspan4226">Database</tspan></text>
    </g>
    <g
       id="g4042-9"
       transform="translate(108,470)">
      <path
         transform="matrix(0.75,0,0,0.75,430.69232,-168.01075)"
         d="m 896,464 c 0,35.34622 -28.65378,64 -64,64 -35.34622,0 -64,-28.65378 -64,-64 0,-35.34622 28.65378,-64 64,-64 35.34622,0 64,28.65378 64,64 z"
         sodipodi:ry="64"
         sodipodi:rx="64"
         sodipodi:cy="464"
         sodipodi:cx="832"
         id="path3900-4-5-5-5"
         style="fill:#FFFFFF;fill-opacity:1;stroke:#ff7100;stroke-width:5.33333349;stroke-miterlimit:4;stroke-opacity:1;stroke-dasharray:5.33333333, 5.33333333;stroke-dashoffset:0"
         sodipodi:type="arc" />
      <text
         sodipodi:linespacing="125%"
         id="text3902-0-8-6-0"
         y="184.36218"
         x="1056"
         style="font-size:40px;font-style:normal;font-weight:normal;line-height:125%;letter-spacing:0px;word-spacing:0px;fill:#FFFFFF;fill-opacity:1;stroke:none;font-family:DejaVu Sans"
         xml:space="preserve"><tspan
           style="font-size:17px;font-style:normal;font-variant:normal;font-weight:bold;font-stretch:normal;text-align:center;text-anchor:middle;fill:#000000;font-family:DejaVu Sans;-inkscape-font-specification:DejaVu Sans Bold"
           y="184.36218"
           x="1056"
           sodipodi:role="line"
           id="tspan4004-2-7">jQuery</tspan></text>
    </g>
    <path
       sodipodi:type="arc"
       style="fill:#FFFFFF;fill-opacity:1;stroke:#18597a;stroke-width:5.33333349;stroke-miterlimit:4;stroke-opacity:1;stroke-dasharray:5.33333333, 5.33333333;stroke-dashoffset:0"
       id="path3900-4-0-5-5-4-0"
       sodipodi:cx="832"
       sodipodi:cy="464"
       sodipodi:rx="64"
       sodipodi:ry="64"
       d="m 896,464 c 0,35.34622 -28.65378,64 -64,64 -35.34622,0 -64,-28.65378 -64,-64 0,-35.34622 28.65378,-64 64,-64 35.34622,0 64,28.65378 64,64 z"
       transform="matrix(0.75,0,0,0.75,-81.307678,437.98925)" />
    <text
       xml:space="preserve"
       style="font-size:40px;font-style:normal;font-weight:normal;line-height:125%;letter-spacing:0px;word-spacing:0px;fill:#FFFFFF;fill-opacity:1;stroke:none;font-family:DejaVu Sans"
       x="544"
       y="776.36218"
       id="text3902-0-87-5-9-9-8"
       sodipodi:linespacing="125%"><tspan
         id="tspan3962-5-1-9-6-3"
         sodipodi:role="line"
         x="544"
         y="776.36218"
         style="font-size:17px;font-style:normal;font-variant:normal;font-weight:bold;font-stretch:normal;text-align:center;text-anchor:middle;fill:#000000;font-family:DejaVu Sans;-inkscape-font-specification:DejaVu Sans Bold">Web</tspan><tspan
         id="tspan4395-4-6"
         sodipodi:role="line"
         x="544"
         y="797.61218"
         style="font-size:17px;font-style:normal;font-variant:normal;font-weight:bold;font-stretch:normal;text-align:center;text-anchor:middle;fill:#000000;font-family:DejaVu Sans;-inkscape-font-specification:DejaVu Sans Bold">Sockets</tspan></text>
    <rect
       style="fill:#18597a;fill-opacity:1;stroke:none"
       id="rect4509"
       width="32"
       height="16"
       x="960"
       y="28.362183" />
    <rect
       style="fill:#40bd4e;fill-opacity:1;stroke:none"
       id="rect4509-4"
       width="32"
       height="16"
       x="960"
       y="60.362183" />
    <rect
       style="fill:#ff7100;fill-opacity:1;stroke:none"
       id="rect4509-4-1"
       width="32"
       height="16"
       x="960"
       y="92.362183" />
    <rect
       style="fill:#ffe059;fill-opacity:1;stroke:none"
       id="rect4509-4-1-1"
       width="32"
       height="16"
       x="960"
       y="124.36218" />
    <text
       xml:space="preserve"
       style="font-size:40px;font-style:normal;font-weight:normal;line-height:125%;letter-spacing:0px;word-spacing:0px;fill:#FFFFFF;fill-opacity:1;stroke:none;font-family:DejaVu Sans"
       x="1008"
       y="40.362183"
       id="text3902-0-8-6-7"
       sodipodi:linespacing="125%"><tspan
         id="tspan4004-2-2"
         sodipodi:role="line"
         x="1008"
         y="40.362183"
         style="font-size:17px;font-style:normal;font-variant:normal;font-weight:bold;font-stretch:normal;text-align:start;text-anchor:start;fill:#000000;font-family:DejaVu Sans;-inkscape-font-specification:DejaVu Sans Bold">W3C-Spezifikationen</tspan></text>
    <text
       xml:space="preserve"
       style="font-size:40px;font-style:normal;font-weight:normal;line-height:125%;letter-spacing:0px;word-spacing:0px;fill:#FFFFFF;fill-opacity:1;stroke:none;font-family:DejaVu Sans"
       x="1008"
       y="72.362183"
       id="text3902-0-8-6-7-0"
       sodipodi:linespacing="125%"><tspan
         id="tspan4004-2-2-2"
         sodipodi:role="line"
         x="1008"
         y="72.362183"
         style="font-size:17px;font-style:normal;font-variant:normal;font-weight:bold;font-stretch:normal;text-align:start;text-anchor:start;fill:#000000;font-family:DejaVu Sans;-inkscape-font-specification:DejaVu Sans Bold">WHATWG-Spezifikationen</tspan></text>
    <text
       xml:space="preserve"
       style="font-size:40px;font-style:normal;font-weight:normal;line-height:125%;letter-spacing:0px;word-spacing:0px;fill:#FFFFFF;fill-opacity:1;stroke:none;font-family:DejaVu Sans"
       x="1008"
       y="104.36218"
       id="text3902-0-8-6-7-0-4"
       sodipodi:linespacing="125%"><tspan
         id="tspan4004-2-2-2-2"
         sodipodi:role="line"
         x="1008"
         y="104.36218"
         style="font-size:17px;font-style:normal;font-variant:normal;font-weight:bold;font-stretch:normal;text-align:start;text-anchor:start;fill:#000000;font-family:DejaVu Sans;-inkscape-font-specification:DejaVu Sans Bold">Andere Arbeitsgruppen</tspan></text>
    <text
       xml:space="preserve"
       style="font-size:40px;font-style:normal;font-weight:normal;line-height:125%;letter-spacing:0px;word-spacing:0px;fill:#FFFFFF;fill-opacity:1;stroke:none;font-family:DejaVu Sans"
       x="1008"
       y="136.36218"
       id="text3902-0-8-6-7-0-4-2"
       sodipodi:linespacing="125%"><tspan
         id="tspan4004-2-2-2-2-1"
         sodipodi:role="line"
         x="1008"
         y="136.36218"
         style="font-size:17px;font-style:normal;font-variant:normal;font-weight:bold;font-stretch:normal;text-align:start;text-anchor:start;fill:#000000;font-family:DejaVu Sans;-inkscape-font-specification:DejaVu Sans Bold">Sprachgebrauch</tspan></text>
    <g
       id="g4655"
       transform="translate(-32,-48.000001)">
      <path
         transform="matrix(0.75,0,0,0.75,494.69232,-36.01075)"
         d="m 896,464 c 0,35.34622 -28.65378,64 -64,64 -35.34622,0 -64,-28.65378 -64,-64 0,-35.34622 28.65378,-64 64,-64 35.34622,0 64,28.65378 64,64 z"
         sodipodi:ry="64"
         sodipodi:rx="64"
         sodipodi:cy="464"
         sodipodi:cx="832"
         id="path3900-4-5-5"
         style="fill:#FFFFFF;fill-opacity:1;stroke:#ff7100;stroke-width:5.33333349;stroke-miterlimit:4;stroke-opacity:1;stroke-dasharray:5.33333333, 5.33333333;stroke-dashoffset:0"
         sodipodi:type="arc" />
      <text
         sodipodi:linespacing="125%"
         id="text3902-0-8-6"
         y="316.36218"
         x="1120"
         style="font-size:40px;font-style:normal;font-weight:normal;line-height:125%;letter-spacing:0px;word-spacing:0px;fill:#FFFFFF;fill-opacity:1;stroke:none;font-family:DejaVu Sans"
         xml:space="preserve"><tspan
           style="font-size:17px;font-style:normal;font-variant:normal;font-weight:bold;font-stretch:normal;text-align:center;text-anchor:middle;fill:#000000;font-family:DejaVu Sans;-inkscape-font-specification:DejaVu Sans Bold"
           y="316.36218"
           x="1120"
           sodipodi:role="line"
           id="tspan4004-2">Node.js</tspan></text>
    </g>
    <g
       id="g3916-0-4-2-4-4"
       transform="translate(-143.30768,47.627075)">
      <path
         transform="matrix(0.75,0,0,0.75,192,112.36218)"
         d="m 896,464 c 0,35.34622 -28.65378,64 -64,64 -35.34622,0 -64,-28.65378 -64,-64 0,-35.34622 28.65378,-64 64,-64 35.34622,0 64,28.65378 64,64 z"
         sodipodi:ry="64"
         sodipodi:rx="64"
         sodipodi:cy="464"
         sodipodi:cx="832"
         id="path3900-4-0-5-7-0"
         style="fill:#FFFFFF;fill-opacity:1;stroke:#18597a;stroke-width:5.33333349;stroke-miterlimit:4;stroke-opacity:1;stroke-dasharray:5.33333333, 5.33333333;stroke-dashoffset:0"
         sodipodi:type="arc" />
      <text
         sodipodi:linespacing="125%"
         id="text3902-0-87-5-4-6"
         y="444.73511"
         x="815.30768"
         style="font-size:40px;font-style:normal;font-weight:normal;line-height:125%;letter-spacing:0px;word-spacing:0px;fill:#FFFFFF;fill-opacity:1;stroke:none;font-family:DejaVu Sans"
         xml:space="preserve"><tspan
           style="font-size:17px;font-style:normal;font-variant:normal;font-weight:bold;font-stretch:normal;text-align:center;text-anchor:middle;fill:#000000;font-family:DejaVu Sans;-inkscape-font-specification:DejaVu Sans Bold"
           y="444.73511"
           x="815.30768"
           sodipodi:role="line"
           id="tspan4197-3">Server-</tspan><tspan
           style="font-size:17px;font-style:normal;font-variant:normal;font-weight:bold;font-stretch:normal;text-align:center;text-anchor:middle;fill:#000000;font-family:DejaVu Sans;-inkscape-font-specification:DejaVu Sans Bold"
           y="465.98511"
           x="815.30768"
           sodipodi:role="line"
           id="tspan4694">Sent</tspan><tspan
           style="font-size:17px;font-style:normal;font-variant:normal;font-weight:bold;font-stretch:normal;text-align:center;text-anchor:middle;fill:#000000;font-family:DejaVu Sans;-inkscape-font-specification:DejaVu Sans Bold"
           y="487.23511"
           x="815.30768"
           sodipodi:role="line"
           id="tspan4696">Events</tspan></text>
    </g>
    <g
       id="g4283-4"
       transform="translate(244.69232,319.62707)">
      <path
         transform="matrix(0.75,0,0,0.75,-336,-191.63782)"
         d="m 896,464 c 0,35.34622 -28.65378,64 -64,64 -35.34622,0 -64,-28.65378 -64,-64 0,-35.34622 28.65378,-64 64,-64 35.34622,0 64,28.65378 64,64 z"
         sodipodi:ry="64"
         sodipodi:rx="64"
         sodipodi:cy="464"
         sodipodi:cx="832"
         id="path3900-4-0-5-4-3"
         style="fill:#FFFFFF;fill-opacity:1;stroke:#18597a;stroke-width:5.33333349;stroke-miterlimit:4;stroke-opacity:1;stroke-dasharray:5.33333333, 5.33333333;stroke-dashoffset:0"
         sodipodi:type="arc" />
      <text
         sodipodi:linespacing="125%"
         id="text3902-0-87-5-3-8"
         y="150.73511"
         x="287.30768"
         style="font-size:40px;font-style:normal;font-weight:normal;line-height:125%;letter-spacing:0px;word-spacing:0px;fill:#FFFFFF;fill-opacity:1;stroke:none;font-family:DejaVu Sans"
         xml:space="preserve"><tspan
           style="font-size:17px;font-style:normal;font-variant:normal;font-weight:bold;font-stretch:normal;text-align:center;text-anchor:middle;fill:#000000;font-family:DejaVu Sans;-inkscape-font-specification:DejaVu Sans Bold"
           y="150.73511"
           x="287.30768"
           sodipodi:role="line"
           id="tspan4226-4">Web</tspan><tspan
           style="font-size:17px;font-style:normal;font-variant:normal;font-weight:bold;font-stretch:normal;text-align:center;text-anchor:middle;fill:#000000;font-family:DejaVu Sans;-inkscape-font-specification:DejaVu Sans Bold"
           y="171.98511"
           x="287.30768"
           sodipodi:role="line"
           id="tspan4730">Storage</tspan></text>
    </g>
    <g
       id="g5221"
       transform="translate(0,2)">
      <path
         transform="matrix(0.49999997,0,0,0.50000004,-287.99997,276.36216)"
         d="m 896,464 c 0,35.34622 -28.65378,64 -64,64 -35.34622,0 -64,-28.65378 -64,-64 0,-35.34622 28.65378,-64 64,-64 35.34622,0 64,28.65378 64,64 z"
         sodipodi:ry="64"
         sodipodi:rx="64"
         sodipodi:cy="464"
         sodipodi:cx="832"
         id="path3900-4-04-3-6"
         style="fill:#FFFFFF;fill-opacity:1;stroke:#000000;stroke-width:4;stroke-miterlimit:4;stroke-opacity:1;stroke-dasharray:3.99999996, 7.99999992;stroke-dashoffset:0"
         sodipodi:type="arc" />
      <text
         sodipodi:linespacing="125%"
         id="text3902-0-7-3-5"
         y="512.36212"
         x="128.00002"
         style="font-size:26.66666794px;font-style:normal;font-weight:normal;line-height:125%;letter-spacing:0px;word-spacing:0px;fill:#FFFFFF;fill-opacity:1;stroke:none;font-family:DejaVu Sans"
         xml:space="preserve"><tspan
           style="font-size:12px;font-style:normal;font-variant:normal;font-weight:normal;font-stretch:normal;text-align:center;text-anchor:middle;fill:#000000;font-family:DejaVu Sans;-inkscape-font-specification:DejaVu Sans"
           y="512.36212"
           x="128.00002"
           sodipodi:role="line"
           id="tspan4856-9">XHTML5</tspan></text>
    </g>
    <g
       id="g4283-4-4"
       transform="translate(526,260)">
      <path
         transform="matrix(0.75,0,0,0.75,-336,-191.63782)"
         d="m 896,464 c 0,35.34622 -28.65378,64 -64,64 -35.34622,0 -64,-28.65378 -64,-64 0,-35.34622 28.65378,-64 64,-64 35.34622,0 64,28.65378 64,64 z"
         sodipodi:ry="64"
         sodipodi:rx="64"
         sodipodi:cy="464"
         sodipodi:cx="832"
         id="path3900-4-0-5-4-3-7"
         style="fill:#FFFFFF;fill-opacity:1;stroke:#18597a;stroke-width:5.33333349;stroke-miterlimit:4;stroke-opacity:1;stroke-dasharray:5.33333333, 5.33333333;stroke-dashoffset:0"
         sodipodi:type="arc" />
      <text
         sodipodi:linespacing="125%"
         id="text3902-0-87-5-3-8-8"
         y="150.73511"
         x="287.30768"
         style="font-size:40px;font-style:normal;font-weight:normal;line-height:125%;letter-spacing:0px;word-spacing:0px;fill:#FFFFFF;fill-opacity:1;stroke:none;font-family:DejaVu Sans"
         xml:space="preserve"><tspan
           style="font-size:17px;font-style:normal;font-variant:normal;font-weight:bold;font-stretch:normal;text-align:center;text-anchor:middle;fill:#000000;font-family:DejaVu Sans;-inkscape-font-specification:DejaVu Sans Bold"
           y="150.73511"
           x="287.30768"
           sodipodi:role="line"
           id="tspan4730-3">File</tspan><tspan
           style="font-size:17px;font-style:normal;font-variant:normal;font-weight:bold;font-stretch:normal;text-align:center;text-anchor:middle;fill:#000000;font-family:DejaVu Sans;-inkscape-font-specification:DejaVu Sans Bold"
           y="171.98511"
           x="287.30768"
           sodipodi:role="line"
           id="tspan4972">API</tspan></text>
    </g>
    <g
       id="g5089"
       transform="translate(2.6923218,-54.372925)">
      <path
         transform="matrix(0.75,0,0,0.75,-114,332.36218)"
         d="m 896,464 c 0,35.34622 -28.65378,64 -64,64 -35.34622,0 -64,-28.65378 -64,-64 0,-35.34622 28.65378,-64 64,-64 35.34622,0 64,28.65378 64,64 z"
         sodipodi:ry="64"
         sodipodi:rx="64"
         sodipodi:cy="464"
         sodipodi:cx="832"
         id="path3900-4-0-5-4-3-9"
         style="fill:#FFFFFF;fill-opacity:1;stroke:#18597a;stroke-width:5.33333349;stroke-miterlimit:4;stroke-opacity:1;stroke-dasharray:5.33333333, 5.33333333;stroke-dashoffset:0"
         sodipodi:type="arc" />
      <text
         sodipodi:linespacing="125%"
         id="text3902-0-87-5-3-8-9"
         y="674.73511"
         x="509.30768"
         style="font-size:40px;font-style:normal;font-weight:normal;line-height:125%;letter-spacing:0px;word-spacing:0px;fill:#FFFFFF;fill-opacity:1;stroke:none;font-family:DejaVu Sans"
         xml:space="preserve"><tspan
           style="font-size:17px;font-style:normal;font-variant:normal;font-weight:bold;font-stretch:normal;text-align:center;text-anchor:middle;fill:#000000;font-family:DejaVu Sans;-inkscape-font-specification:DejaVu Sans Bold"
           y="674.73511"
           x="509.30768"
           sodipodi:role="line"
           id="tspan4226-4-2">Web</tspan><tspan
           style="font-size:17px;font-style:normal;font-variant:normal;font-weight:bold;font-stretch:normal;text-align:center;text-anchor:middle;fill:#000000;font-family:DejaVu Sans;-inkscape-font-specification:DejaVu Sans Bold"
           y="695.98511"
           x="509.30768"
           sodipodi:role="line"
           id="tspan4730-1">Workers</tspan></text>
    </g>
    <path
       sodipodi:type="arc"
       style="fill:#FFFFFF;fill-opacity:1;stroke:#18597a;stroke-width:86.26088715;stroke-miterlimit:4;stroke-opacity:1;stroke-dasharray:172.52176793, 86.26088397;stroke-dashoffset:0"
       id="path3781-9-3-3"
       sodipodi:cx="512"
       sodipodi:cy="512"
       sodipodi:rx="496"
       sodipodi:ry="496"
       d="m 1008,512 c 0,273.93324 -222.06676,496 -496,496 C 238.06676,1008 16,785.93324 16,512 16,238.06676 238.06676,16 512,16 c 273.93324,0 496,222.06676 496,496 z"
       transform="matrix(0.13911288,0,0,0.13911288,184.77421,364.13638)" />
    <path
       sodipodi:type="arc"
       style="fill:#FFFFFF;fill-opacity:1;stroke:#40bd4e;stroke-width:86.26088715;stroke-miterlimit:4;stroke-opacity:1;stroke-dasharray:172.52176793, 86.26088397;stroke-dashoffset:0"
       id="path3781-9-3-3-5"
       sodipodi:cx="512"
       sodipodi:cy="512"
       sodipodi:rx="496"
       sodipodi:ry="496"
       d="m 1008,512 c 0,273.93324 -222.06676,496 -496,496 C 238.06676,1008 16,785.93324 16,512 16,238.06676 238.06676,16 512,16 c 273.93324,0 496,222.06676 496,496 z"
       transform="matrix(0.13911288,0,0,0.13911288,392.77421,234.13638)" />
    <text
       xml:space="preserve"
       style="font-size:40px;font-style:normal;font-weight:normal;line-height:125%;letter-spacing:0px;word-spacing:0px;fill:#FFFFFF;fill-opacity:1;stroke:none;font-family:DejaVu Sans"
       x="256"
       y="414.36218"
       id="text3902-0-87-5-3-8-9-0"
       sodipodi:linespacing="125%"><tspan
         id="tspan4226-4-2-8"
         sodipodi:role="line"
         x="256"
         y="414.36218"
         style="font-size:20px;font-style:normal;font-variant:normal;font-weight:bold;font-stretch:normal;text-align:center;text-anchor:middle;fill:#000000;font-family:DejaVu Sans;-inkscape-font-specification:DejaVu Sans Bold">Web</tspan><tspan
         sodipodi:role="line"
         x="256"
         y="439.36218"
         style="font-size:20px;font-style:normal;font-variant:normal;font-weight:bold;font-stretch:normal;text-align:center;text-anchor:middle;fill:#000000;font-family:DejaVu Sans;-inkscape-font-specification:DejaVu Sans Bold"
         id="tspan5095">Developer</tspan><tspan
         id="tspan4730-1-0"
         sodipodi:role="line"
         x="256"
         y="464.36218"
         style="font-size:20px;font-style:normal;font-variant:normal;font-weight:bold;font-stretch:normal;text-align:center;text-anchor:middle;fill:#000000;font-family:DejaVu Sans;-inkscape-font-specification:DejaVu Sans Bold">Edition</tspan></text>
    <text
       xml:space="preserve"
       style="font-size:40px;font-style:normal;font-weight:normal;line-height:125%;letter-spacing:0px;word-spacing:0px;fill:#FFFFFF;fill-opacity:1;stroke:none;font-family:DejaVu Sans"
       x="465"
       y="285.36218"
       id="text3902-0-87-5-3-8-9-0-4"
       sodipodi:linespacing="125%"><tspan
         id="tspan4226-4-2-8-6"
         sodipodi:role="line"
         x="465"
         y="285.36218"
         style="font-size:20px;font-style:normal;font-variant:normal;font-weight:bold;font-stretch:normal;text-align:center;text-anchor:middle;fill:#000000;font-family:DejaVu Sans;-inkscape-font-specification:DejaVu Sans Bold">Web</tspan><tspan
         sodipodi:role="line"
         x="465"
         y="310.36218"
         style="font-size:20px;font-style:normal;font-variant:normal;font-weight:bold;font-stretch:normal;text-align:center;text-anchor:middle;fill:#000000;font-family:DejaVu Sans;-inkscape-font-specification:DejaVu Sans Bold"
         id="tspan5095-5">Developer</tspan><tspan
         id="tspan4730-1-0-1"
         sodipodi:role="line"
         x="465"
         y="335.36218"
         style="font-size:20px;font-style:normal;font-variant:normal;font-weight:bold;font-stretch:normal;text-align:center;text-anchor:middle;fill:#000000;font-family:DejaVu Sans;-inkscape-font-specification:DejaVu Sans Bold">Edition</tspan></text>
    <g
       transform="translate(255.99998,-1.9999396)"
       id="g5221-7">
      <path
         transform="matrix(0.49999997,0,0,0.50000004,-287.99997,276.36216)"
         d="m 896,464 c 0,35.34622 -28.65378,64 -64,64 -35.34622,0 -64,-28.65378 -64,-64 0,-35.34622 28.65378,-64 64,-64 35.34622,0 64,28.65378 64,64 z"
         sodipodi:ry="64"
         sodipodi:rx="64"
         sodipodi:cy="464"
         sodipodi:cx="832"
         id="path3900-4-04-3-6-6"
         style="fill:#FFFFFF;fill-opacity:1;stroke:#000000;stroke-width:4;stroke-miterlimit:4;stroke-opacity:1;stroke-dasharray:3.99999996, 7.99999992;stroke-dashoffset:0"
         sodipodi:type="arc" />
      <text
         sodipodi:linespacing="125%"
         id="text3902-0-7-3-5-1"
         y="504.36212"
         x="128.00002"
         style="font-size:26.66666794px;font-style:normal;font-weight:normal;line-height:125%;letter-spacing:0px;word-spacing:0px;fill:#FFFFFF;fill-opacity:1;stroke:none;font-family:DejaVu Sans"
         xml:space="preserve"><tspan
           style="font-size:12px;font-style:normal;font-variant:normal;font-weight:normal;font-stretch:normal;text-align:center;text-anchor:middle;fill:#000000;font-family:DejaVu Sans;-inkscape-font-specification:DejaVu Sans"
           y="504.36212"
           x="128.00002"
           sodipodi:role="line"
           id="tspan4856-9-1">Offline</tspan><tspan
           style="font-size:12px;font-style:normal;font-variant:normal;font-weight:normal;font-stretch:normal;text-align:center;text-anchor:middle;fill:#000000;font-family:DejaVu Sans;-inkscape-font-specification:DejaVu Sans"
           y="519.36212"
           x="128.00002"
           sodipodi:role="line"
           id="tspan5334">Apps</tspan></text>
    </g>
    <g
       transform="translate(127.99999,148.00001)"
       id="g5221-7-6">
      <path
         transform="matrix(0.49999997,0,0,0.50000004,-287.99997,276.36216)"
         d="m 896,464 c 0,35.34622 -28.65378,64 -64,64 -35.34622,0 -64,-28.65378 -64,-64 0,-35.34622 28.65378,-64 64,-64 35.34622,0 64,28.65378 64,64 z"
         sodipodi:ry="64"
         sodipodi:rx="64"
         sodipodi:cy="464"
         sodipodi:cx="832"
         id="path3900-4-04-3-6-6-8"
         style="fill:#FFFFFF;fill-opacity:1;stroke:#000000;stroke-width:4;stroke-miterlimit:4;stroke-opacity:1;stroke-dasharray:3.99999996, 7.99999992;stroke-dashoffset:0"
         sodipodi:type="arc" />
      <text
         sodipodi:linespacing="125%"
         id="text3902-0-7-3-5-1-3"
         y="506.36212"
         x="128.00002"
         style="font-size:26.66666794px;font-style:normal;font-weight:normal;line-height:125%;letter-spacing:0px;word-spacing:0px;fill:#FFFFFF;fill-opacity:1;stroke:none;font-family:DejaVu Sans"
         xml:space="preserve"><tspan
           style="font-size:12px;font-style:normal;font-variant:normal;font-weight:normal;font-stretch:normal;text-align:center;text-anchor:middle;fill:#000000;font-family:DejaVu Sans;-inkscape-font-specification:DejaVu Sans"
           y="506.36212"
           x="128.00002"
           sodipodi:role="line"
           id="tspan4856-9-1-7">HTML5-</tspan><tspan
           style="font-size:12px;font-style:normal;font-variant:normal;font-weight:normal;font-stretch:normal;text-align:center;text-anchor:middle;fill:#000000;font-family:DejaVu Sans;-inkscape-font-specification:DejaVu Sans"
           y="521.36212"
           x="128.00002"
           sodipodi:role="line"
           id="tspan5338">Parser</tspan></text>
    </g>
    <g
       transform="translate(27.999995,100.00001)"
       id="g5221-7-6-5">
      <path
         transform="matrix(0.49999997,0,0,0.50000004,-287.99997,276.36216)"
         d="m 896,464 c 0,35.34622 -28.65378,64 -64,64 -35.34622,0 -64,-28.65378 -64,-64 0,-35.34622 28.65378,-64 64,-64 35.34622,0 64,28.65378 64,64 z"
         sodipodi:ry="64"
         sodipodi:rx="64"
         sodipodi:cy="464"
         sodipodi:cx="832"
         id="path3900-4-04-3-6-6-8-0"
         style="fill:#FFFFFF;fill-opacity:1;stroke:#000000;stroke-width:4;stroke-miterlimit:4;stroke-opacity:1;stroke-dasharray:3.99999996, 7.99999992;stroke-dashoffset:0"
         sodipodi:type="arc" />
      <text
         sodipodi:linespacing="125%"
         id="text3902-0-7-3-5-1-3-1"
         y="506.36212"
         x="128.00002"
         style="font-size:26.66666794px;font-style:normal;font-weight:normal;line-height:125%;letter-spacing:0px;word-spacing:0px;fill:#FFFFFF;fill-opacity:1;stroke:none;font-family:DejaVu Sans"
         xml:space="preserve"><tspan
           style="font-size:12px;font-style:normal;font-variant:normal;font-weight:normal;font-stretch:normal;text-align:center;text-anchor:middle;fill:#000000;font-family:DejaVu Sans;-inkscape-font-specification:DejaVu Sans"
           y="506.36212"
           x="128.00002"
           sodipodi:role="line"
           id="tspan5340">Audio &amp;</tspan><tspan
           style="font-size:12px;font-style:normal;font-variant:normal;font-weight:normal;font-stretch:normal;text-align:center;text-anchor:middle;fill:#000000;font-family:DejaVu Sans;-inkscape-font-specification:DejaVu Sans"
           y="521.36212"
           x="128.00002"
           sodipodi:role="line"
           id="tspan5348">Video</tspan></text>
    </g>
    <g
       transform="translate(227.99998,96.00006)"
       id="g5221-7-6-5-7">
      <path
         transform="matrix(0.49999997,0,0,0.50000004,-287.99997,276.36216)"
         d="m 896,464 c 0,35.34622 -28.65378,64 -64,64 -35.34622,0 -64,-28.65378 -64,-64 0,-35.34622 28.65378,-64 64,-64 35.34622,0 64,28.65378 64,64 z"
         sodipodi:ry="64"
         sodipodi:rx="64"
         sodipodi:cy="464"
         sodipodi:cx="832"
         id="path3900-4-04-3-6-6-8-0-7"
         style="fill:#FFFFFF;fill-opacity:1;stroke:#000000;stroke-width:4;stroke-miterlimit:4;stroke-opacity:1;stroke-dasharray:3.99999996, 7.99999992;stroke-dashoffset:0"
         sodipodi:type="arc" />
      <text
         sodipodi:linespacing="125%"
         id="text3902-0-7-3-5-1-3-1-9"
         y="504.36212"
         x="128.00002"
         style="font-size:26.66666794px;font-style:normal;font-weight:normal;line-height:125%;letter-spacing:0px;word-spacing:0px;fill:#FFFFFF;fill-opacity:1;stroke:none;font-family:DejaVu Sans"
         xml:space="preserve"><tspan
           style="font-size:12px;font-style:normal;font-variant:normal;font-weight:normal;font-stretch:normal;text-align:center;text-anchor:middle;fill:#000000;font-family:DejaVu Sans;-inkscape-font-specification:DejaVu Sans"
           y="504.36212"
           x="128.00002"
           sodipodi:role="line"
           id="tspan4856-9-1-7-8-1">Neue</tspan><tspan
           style="font-size:12px;font-style:normal;font-variant:normal;font-weight:normal;font-stretch:normal;text-align:center;text-anchor:middle;fill:#000000;font-family:DejaVu Sans;-inkscape-font-specification:DejaVu Sans"
           y="519.36212"
           x="128.00002"
           sodipodi:role="line"
           id="tspan5336">Elemente</tspan></text>
    </g>
    <g
       id="g5413"
       transform="translate(700,200)">
      <path
         transform="matrix(0.75,0,0,0.75,-336,-191.63782)"
         d="m 896,464 c 0,35.34622 -28.65378,64 -64,64 -35.34622,0 -64,-28.65378 -64,-64 0,-35.34622 28.65378,-64 64,-64 35.34622,0 64,28.65378 64,64 z"
         sodipodi:ry="64"
         sodipodi:rx="64"
         sodipodi:cy="464"
         sodipodi:cx="832"
         id="path3900-4-0-5-4-3-7-5"
         style="fill:#FFFFFF;fill-opacity:1;stroke:#18597a;stroke-width:5.33333349;stroke-miterlimit:4;stroke-opacity:1;stroke-dasharray:5.33333333, 5.33333333;stroke-dashoffset:0"
         sodipodi:type="arc" />
      <text
         sodipodi:linespacing="125%"
         id="text3902-0-87-5-3-8-8-4"
         y="150.73511"
         x="287.30768"
         style="font-size:40px;font-style:normal;font-weight:normal;line-height:125%;letter-spacing:0px;word-spacing:0px;fill:#FFFFFF;fill-opacity:1;stroke:none;font-family:DejaVu Sans"
         xml:space="preserve"><tspan
           style="font-size:17px;font-style:normal;font-variant:normal;font-weight:bold;font-stretch:normal;text-align:center;text-anchor:middle;fill:#000000;font-family:DejaVu Sans;-inkscape-font-specification:DejaVu Sans Bold"
           y="150.73511"
           x="287.30768"
           sodipodi:role="line"
           id="tspan4972-7">Touch</tspan><tspan
           style="font-size:17px;font-style:normal;font-variant:normal;font-weight:bold;font-stretch:normal;text-align:center;text-anchor:middle;fill:#000000;font-family:DejaVu Sans;-inkscape-font-specification:DejaVu Sans Bold"
           y="171.98511"
           x="287.30768"
           sodipodi:role="line"
           id="tspan5382">Events</tspan></text>
    </g>
    <g
       id="g5453"
       transform="translate(448,80.000002)">
      <path
         transform="matrix(0.75,0,0,0.75,-336,-191.63782)"
         d="m 896,464 c 0,35.34622 -28.65378,64 -64,64 -35.34622,0 -64,-28.65378 -64,-64 0,-35.34622 28.65378,-64 64,-64 35.34622,0 64,28.65378 64,64 z"
         sodipodi:ry="64"
         sodipodi:rx="64"
         sodipodi:cy="464"
         sodipodi:cx="832"
         id="path3900-4-0-5-4-3-7-5-1"
         style="fill:#FFFFFF;fill-opacity:1;stroke:#18597a;stroke-width:5.33333349;stroke-miterlimit:4;stroke-opacity:1;stroke-dasharray:5.33333333, 5.33333333;stroke-dashoffset:0"
         sodipodi:type="arc" />
      <text
         sodipodi:linespacing="125%"
         id="text3902-0-87-5-3-8-8-4-8"
         y="142.73511"
         x="287.30768"
         style="font-size:40px;font-style:normal;font-weight:normal;line-height:125%;letter-spacing:0px;word-spacing:0px;fill:#FFFFFF;fill-opacity:1;stroke:none;font-family:DejaVu Sans"
         xml:space="preserve"><tspan
           style="font-size:17px;font-style:normal;font-variant:normal;font-weight:bold;font-stretch:normal;text-align:center;text-anchor:middle;fill:#000000;font-family:DejaVu Sans;-inkscape-font-specification:DejaVu Sans Bold"
           y="142.73511"
           x="287.30768"
           sodipodi:role="line"
           id="tspan3176">Full-</tspan><tspan
           style="font-size:17px;font-style:normal;font-variant:normal;font-weight:bold;font-stretch:normal;text-align:center;text-anchor:middle;fill:#000000;font-family:DejaVu Sans;-inkscape-font-specification:DejaVu Sans Bold"
           y="163.98511"
           x="287.30768"
           sodipodi:role="line"
           id="tspan3182">screen</tspan><tspan
           style="font-size:17px;font-style:normal;font-variant:normal;font-weight:bold;font-stretch:normal;text-align:center;text-anchor:middle;fill:#000000;font-family:DejaVu Sans;-inkscape-font-specification:DejaVu Sans Bold"
           y="185.23511"
           x="287.30768"
           sodipodi:role="line"
           id="tspan3178">API</tspan></text>
    </g>
    <g
       transform="translate(538.69232,415.62707)"
       id="g5453-3">
      <path
         transform="matrix(0.75,0,0,0.75,-336,-191.63782)"
         d="m 896,464 c 0,35.34622 -28.65378,64 -64,64 -35.34622,0 -64,-28.65378 -64,-64 0,-35.34622 28.65378,-64 64,-64 35.34622,0 64,28.65378 64,64 z"
         sodipodi:ry="64"
         sodipodi:rx="64"
         sodipodi:cy="464"
         sodipodi:cx="832"
         id="path3900-4-0-5-4-3-7-5-1-6"
         style="fill:#FFFFFF;fill-opacity:1;stroke:#18597a;stroke-width:5.33333349;stroke-miterlimit:4;stroke-opacity:1;stroke-dasharray:5.33333333, 5.33333333;stroke-dashoffset:0"
         sodipodi:type="arc" />
      <text
         sodipodi:linespacing="125%"
         id="text3902-0-87-5-3-8-8-4-8-1"
         y="142.73511"
         x="287.30768"
         style="font-size:40px;font-style:normal;font-weight:normal;line-height:125%;letter-spacing:0px;word-spacing:0px;fill:#FFFFFF;fill-opacity:1;stroke:none;font-family:DejaVu Sans"
         xml:space="preserve"><tspan
           id="tspan5451-3"
           style="font-size:17px;font-style:normal;font-variant:normal;font-weight:bold;font-stretch:normal;text-align:center;text-anchor:middle;fill:#000000;font-family:DejaVu Sans;-inkscape-font-specification:DejaVu Sans Bold"
           y="142.73511"
           x="287.30768"
           sodipodi:role="line">File</tspan><tspan
           style="font-size:17px;font-style:normal;font-variant:normal;font-weight:bold;font-stretch:normal;text-align:center;text-anchor:middle;fill:#000000;font-family:DejaVu Sans;-inkscape-font-specification:DejaVu Sans Bold"
           y="163.98511"
           x="287.30768"
           sodipodi:role="line"
           id="tspan5705">System</tspan><tspan
           style="font-size:17px;font-style:normal;font-variant:normal;font-weight:bold;font-stretch:normal;text-align:center;text-anchor:middle;fill:#000000;font-family:DejaVu Sans;-inkscape-font-specification:DejaVu Sans Bold"
           y="185.23511"
           x="287.30768"
           sodipodi:role="line"
           id="tspan5707">API</tspan></text>
    </g>
    <g
       transform="translate(656.69232,319.62707)"
       id="g5453-3-3">
      <path
         transform="matrix(0.75,0,0,0.75,-336,-191.63782)"
         d="m 896,464 c 0,35.34622 -28.65378,64 -64,64 -35.34622,0 -64,-28.65378 -64,-64 0,-35.34622 28.65378,-64 64,-64 35.34622,0 64,28.65378 64,64 z"
         sodipodi:ry="64"
         sodipodi:rx="64"
         sodipodi:cy="464"
         sodipodi:cx="832"
         id="path3900-4-0-5-4-3-7-5-1-6-2"
         style="fill:#FFFFFF;fill-opacity:1;stroke:#18597a;stroke-width:5.33333349;stroke-miterlimit:4;stroke-opacity:1;stroke-dasharray:5.33333333, 5.33333333;stroke-dashoffset:0"
         sodipodi:type="arc" />
      <text
         sodipodi:linespacing="125%"
         id="text3902-0-87-5-3-8-8-4-8-1-6"
         y="150.73511"
         x="287.30768"
         style="font-size:40px;font-style:normal;font-weight:normal;line-height:125%;letter-spacing:0px;word-spacing:0px;fill:#FFFFFF;fill-opacity:1;stroke:none;font-family:DejaVu Sans"
         xml:space="preserve"><tspan
           style="font-size:17px;font-style:normal;font-variant:normal;font-weight:bold;font-stretch:normal;text-align:center;text-anchor:middle;fill:#000000;font-family:DejaVu Sans;-inkscape-font-specification:DejaVu Sans Bold"
           y="150.73511"
           x="287.30768"
           sodipodi:role="line"
           id="tspan5697">Device</tspan><tspan
           style="font-size:17px;font-style:normal;font-variant:normal;font-weight:bold;font-stretch:normal;text-align:center;text-anchor:middle;fill:#000000;font-family:DejaVu Sans;-inkscape-font-specification:DejaVu Sans Bold"
           y="171.98511"
           x="287.30768"
           sodipodi:role="line"
           id="tspan5701">APIs</tspan></text>
    </g>
    <g
       transform="translate(456,726)"
       id="g5453-3-3-8">
      <path
         transform="matrix(0.75,0,0,0.75,-336,-191.63782)"
         d="m 896,464 c 0,35.34622 -28.65378,64 -64,64 -35.34622,0 -64,-28.65378 -64,-64 0,-35.34622 28.65378,-64 64,-64 35.34622,0 64,28.65378 64,64 z"
         sodipodi:ry="64"
         sodipodi:rx="64"
         sodipodi:cy="464"
         sodipodi:cx="832"
         id="path3900-4-0-5-4-3-7-5-1-6-2-7"
         style="fill:#FFFFFF;fill-opacity:1;stroke:#18597a;stroke-width:5.33333349;stroke-miterlimit:4;stroke-opacity:1;stroke-dasharray:5.33333333, 5.33333333;stroke-dashoffset:0"
         sodipodi:type="arc" />
      <text
         sodipodi:linespacing="125%"
         id="text3902-0-87-5-3-8-8-4-8-1-6-9"
         y="142.73511"
         x="287.30768"
         style="font-size:40px;font-style:normal;font-weight:normal;line-height:125%;letter-spacing:0px;word-spacing:0px;fill:#FFFFFF;fill-opacity:1;stroke:none;font-family:DejaVu Sans"
         xml:space="preserve"><tspan
           id="tspan5451-3-0-2"
           style="font-size:17px;font-style:normal;font-variant:normal;font-weight:bold;font-stretch:normal;text-align:center;text-anchor:middle;fill:#000000;font-family:DejaVu Sans;-inkscape-font-specification:DejaVu Sans Bold"
           y="142.73511"
           x="287.30768"
           sodipodi:role="line">Web</tspan><tspan
           style="font-size:17px;font-style:normal;font-variant:normal;font-weight:bold;font-stretch:normal;text-align:center;text-anchor:middle;fill:#000000;font-family:DejaVu Sans;-inkscape-font-specification:DejaVu Sans Bold"
           y="163.98511"
           x="287.30768"
           sodipodi:role="line"
           id="tspan4013">Audio</tspan><tspan
           style="font-size:17px;font-style:normal;font-variant:normal;font-weight:bold;font-stretch:normal;text-align:center;text-anchor:middle;fill:#000000;font-family:DejaVu Sans;-inkscape-font-specification:DejaVu Sans Bold"
           y="185.23511"
           x="287.30768"
           sodipodi:role="line"
           id="tspan5711">API</tspan></text>
    </g>
    <g
       transform="translate(510,594)"
       id="g5453-3-3-8-7">
      <g
         id="g5679"
         style="opacity:0.4">
        <path
           sodipodi:type="arc"
           style="fill:#FFFFFF;fill-opacity:1;stroke:#18597a;stroke-width:5.33333349;stroke-miterlimit:4;stroke-opacity:1;stroke-dasharray:5.33333333, 5.33333333;stroke-dashoffset:0"
           id="path3900-4-0-5-4-3-7-5-1-6-2-7-7"
           sodipodi:cx="832"
           sodipodi:cy="464"
           sodipodi:rx="64"
           sodipodi:ry="64"
           d="m 896,464 c 0,35.34622 -28.65378,64 -64,64 -35.34622,0 -64,-28.65378 -64,-64 0,-35.34622 28.65378,-64 64,-64 35.34622,0 64,28.65378 64,64 z"
           transform="matrix(0.75,0,0,0.75,-336,-191.63782)" />
        <text
           xml:space="preserve"
           style="font-size:40px;font-style:normal;font-weight:normal;line-height:125%;letter-spacing:0px;word-spacing:0px;fill:#FFFFFF;fill-opacity:1;stroke:none;font-family:DejaVu Sans"
           x="287.30768"
           y="150.73511"
           id="text3902-0-87-5-3-8-8-4-8-1-6-9-1"
           sodipodi:linespacing="125%"><tspan
             sodipodi:role="line"
             x="287.30768"
             y="150.73511"
             style="font-size:17px;font-style:normal;font-variant:normal;font-weight:bold;font-stretch:normal;text-align:center;text-anchor:middle;fill:#000000;font-family:DejaVu Sans;-inkscape-font-specification:DejaVu Sans Bold;letter-spacing:-0.35px"
             id="tspan5451-3-0-2-1">Web SQL</tspan><tspan
             id="tspan5677"
             sodipodi:role="line"
             x="287.30768"
             y="171.98511"
             style="font-size:17px;font-style:normal;font-variant:normal;font-weight:bold;font-stretch:normal;text-align:center;text-anchor:middle;fill:#000000;font-family:DejaVu Sans;-inkscape-font-specification:DejaVu Sans Bold;letter-spacing:-0.35px">Database</tspan></text>
      </g>
    </g>
    <g
       id="g3972"
       transform="translate(271.30768,-201.62707)">
      <path
         transform="matrix(0.75,0,0,0.75,16.69232,533.98925)"
         d="m 896,464 c 0,35.34622 -28.65378,64 -64,64 -35.34622,0 -64,-28.65378 -64,-64 0,-35.34622 28.65378,-64 64,-64 35.34622,0 64,28.65378 64,64 z"
         sodipodi:ry="64"
         sodipodi:rx="64"
         sodipodi:cy="464"
         sodipodi:cx="832"
         id="path3900-4-0-5-4-3-7-5-1-6-2-7-7-2"
         style="fill:#FFFFFF;fill-opacity:1;stroke:#ff7100;stroke-width:5.33333349;stroke-miterlimit:4;stroke-opacity:1;stroke-dasharray:5.33333333, 5.33333333;stroke-dashoffset:0"
         sodipodi:type="arc" />
      <text
         sodipodi:linespacing="125%"
         id="text3902-0-87-5-3-8-8-4-8-1-6-9-1-9"
         y="876.36218"
         x="640"
         style="font-size:40px;font-style:normal;font-weight:normal;line-height:125%;letter-spacing:0px;word-spacing:0px;fill:#FFFFFF;fill-opacity:1;stroke:none;font-family:DejaVu Sans"
         xml:space="preserve"><tspan
           id="tspan5451-3-0-2-1-4"
           style="font-size:17px;font-style:normal;font-variant:normal;font-weight:bold;font-stretch:normal;text-align:center;text-anchor:middle;fill:#000000;font-family:DejaVu Sans;-inkscape-font-specification:DejaVu Sans Bold"
           y="876.36218"
           x="640"
           sodipodi:role="line">Typed</tspan><tspan
           style="font-size:17px;font-style:normal;font-variant:normal;font-weight:bold;font-stretch:normal;text-align:center;text-anchor:middle;fill:#000000;font-family:DejaVu Sans;-inkscape-font-specification:DejaVu Sans Bold"
           y="897.61218"
           x="640"
           sodipodi:role="line"
           id="tspan5715">Arrays</tspan></text>
    </g>
    <path
       sodipodi:type="arc"
       style="fill:#FFFFFF;fill-opacity:1;stroke:#18597a;stroke-width:4;stroke-miterlimit:4;stroke-opacity:1;stroke-dasharray:8, 4;stroke-dashoffset:0"
       id="path3900-4-0-5-4-3-7-5-1-6-2-7-8"
       sodipodi:cx="832"
       sodipodi:cy="464"
       sodipodi:rx="64"
       sodipodi:ry="64"
       d="m 896,464 c 0,35.34622 -28.65378,64 -64,64 -35.34622,0 -64,-28.65378 -64,-64 0,-35.34622 28.65378,-64 64,-64 35.34622,0 64,28.65378 64,64 z"
       transform="matrix(2,0,0,2,-640,-67.637818)" />
    <text
       xml:space="preserve"
       style="font-size:106.66667175px;font-style:normal;font-weight:normal;line-height:125%;letter-spacing:0px;word-spacing:0px;fill:#FFFFFF;fill-opacity:1;stroke:none;font-family:DejaVu Sans"
       x="1026.1538"
       y="869.35669"
       id="text3902-0-87-5-3-8-8-4-8-1-6-9-3"
       sodipodi:linespacing="125%"><tspan
         id="tspan5711-6"
         sodipodi:role="line"
         x="1026.1538"
         y="869.35669"
         style="font-size:30px;font-style:normal;font-variant:normal;font-weight:bold;font-stretch:normal;text-align:center;text-anchor:middle;fill:#000000;font-family:DejaVu Sans;-inkscape-font-specification:DejaVu Sans Bold">CSS3</tspan></text>
    <path
       sodipodi:type="arc"
       style="fill:#FFFFFF;fill-opacity:1;stroke:#18597a;stroke-width:4;stroke-miterlimit:4;stroke-opacity:1;stroke-dasharray:3.99999995999999980, 7.99999991999999960;stroke-dashoffset:0"
       id="path3900-4-04-3-6-6-8-0-7-4"
       sodipodi:cx="832"
       sodipodi:cy="464"
       sodipodi:rx="64"
       sodipodi:ry="64"
       d="m 896,464 c 0,35.34622 -28.65378,64 -64,64 -35.34622,0 -64,-28.65378 -64,-64 0,-35.34622 28.65378,-64 64,-64 35.34622,0 64,28.65378 64,64 z"
       transform="matrix(0.49999997,0,0,0.50000004,608.00001,552.36222)" />
    <text
       xml:space="preserve"
       style="font-size:26.66666794px;font-style:normal;font-weight:normal;line-height:125%;letter-spacing:0px;word-spacing:0px;fill:#FFFFFF;fill-opacity:1;stroke:none;font-family:DejaVu Sans"
       x="1024"
       y="780.36218"
       id="text3902-0-7-3-5-1-3-1-9-1"
       sodipodi:linespacing="125%"><tspan
         id="tspan5336-4"
         sodipodi:role="line"
         x="1024"
         y="780.36218"
         style="font-size:12px;font-style:normal;font-variant:normal;font-weight:normal;font-stretch:normal;text-align:center;text-anchor:middle;fill:#000000;font-family:DejaVu Sans;-inkscape-font-specification:DejaVu Sans">Media</tspan><tspan
         id="tspan4082"
         sodipodi:role="line"
         x="1024"
         y="795.36218"
         style="font-size:12px;font-style:normal;font-variant:normal;font-weight:normal;font-stretch:normal;text-align:center;text-anchor:middle;fill:#000000;font-family:DejaVu Sans;-inkscape-font-specification:DejaVu Sans">Queries</tspan></text>
    <path
       sodipodi:type="arc"
       style="fill:#FFFFFF;fill-opacity:1;stroke:#18597a;stroke-width:4;stroke-miterlimit:4;stroke-opacity:1;stroke-dasharray:3.99999995999999980, 7.99999991999999960;stroke-dashoffset:0"
       id="path3900-4-04-3-6-6-8-0-7-4-9"
       sodipodi:cx="832"
       sodipodi:cy="464"
       sodipodi:rx="64"
       sodipodi:ry="64"
       d="m 896,464 c 0,35.34622 -28.65378,64 -64,64 -35.34622,0 -64,-28.65378 -64,-64 0,-35.34622 28.65378,-64 64,-64 35.34622,0 64,28.65378 64,64 z"
       transform="matrix(0.49999997,0,0,0.50000004,608.00002,708.36216)" />
    <text
       xml:space="preserve"
       style="font-size:26.66666794px;font-style:normal;font-weight:normal;line-height:125%;letter-spacing:0px;word-spacing:0px;fill:#FFFFFF;fill-opacity:1;stroke:none;font-family:DejaVu Sans"
       x="1024"
       y="936.36212"
       id="text3902-0-7-3-5-1-3-1-9-1-3"
       sodipodi:linespacing="125%"><tspan
         id="tspan4118"
         sodipodi:role="line"
         x="1024"
         y="936.36212"
         style="font-size:12px;font-style:normal;font-variant:normal;font-weight:normal;font-stretch:normal;text-align:center;text-anchor:middle;fill:#000000;font-family:DejaVu Sans;-inkscape-font-specification:DejaVu Sans">Ani-</tspan><tspan
         id="tspan4122"
         sodipodi:role="line"
         x="1024"
         y="951.36212"
         style="font-size:12px;font-style:normal;font-variant:normal;font-weight:normal;font-stretch:normal;text-align:center;text-anchor:middle;fill:#000000;font-family:DejaVu Sans;-inkscape-font-specification:DejaVu Sans">mationen</tspan></text>
    <path
       sodipodi:type="arc"
       style="fill:#FFFFFF;fill-opacity:1;stroke:#18597a;stroke-width:4;stroke-miterlimit:4;stroke-opacity:1;stroke-dasharray:3.99999995999999980, 7.99999991999999960;stroke-dashoffset:0"
       id="path3900-4-04-3-6-6-8-0-7-4-9-0"
       sodipodi:cx="832"
       sodipodi:cy="464"
       sodipodi:rx="64"
       sodipodi:ry="64"
       d="m 896,464 c 0,35.34622 -28.65378,64 -64,64 -35.34622,0 -64,-28.65378 -64,-64 0,-35.34622 28.65378,-64 64,-64 35.34622,0 64,28.65378 64,64 z"
       transform="matrix(0.49999997,0,0,0.50000004,680.00001,666.36222)" />
    <text
       xml:space="preserve"
       style="font-size:26.66666794px;font-style:normal;font-weight:normal;line-height:125%;letter-spacing:0px;word-spacing:0px;fill:#FFFFFF;fill-opacity:1;stroke:none;font-family:DejaVu Sans"
       x="1096"
       y="902.36218"
       id="text3902-0-7-3-5-1-3-1-9-1-3-0"
       sodipodi:linespacing="125%"><tspan
         id="tspan4122-3"
         sodipodi:role="line"
         x="1096"
         y="902.36218"
         style="font-size:12px;font-style:normal;font-variant:normal;font-weight:normal;font-stretch:normal;text-align:center;text-anchor:middle;fill:#000000;font-family:DejaVu Sans;-inkscape-font-specification:DejaVu Sans">Layout</tspan></text>
    <path
       sodipodi:type="arc"
       style="fill:#FFFFFF;fill-opacity:1;stroke:#18597a;stroke-width:4;stroke-miterlimit:4;stroke-opacity:1;stroke-dasharray:3.99999995999999980, 7.99999991999999960;stroke-dashoffset:0"
       id="path3900-4-04-3-6-6-8-0-7-4-9-0-8"
       sodipodi:cx="832"
       sodipodi:cy="464"
       sodipodi:rx="64"
       sodipodi:ry="64"
       d="m 896,464 c 0,35.34622 -28.65378,64 -64,64 -35.34622,0 -64,-28.65378 -64,-64 0,-35.34622 28.65378,-64 64,-64 35.34622,0 64,28.65378 64,64 z"
       transform="matrix(0.49999997,0,0,0.50000004,680.00002,586.36217)" />
    <text
       xml:space="preserve"
       style="font-size:26.66666794px;font-style:normal;font-weight:normal;line-height:125%;letter-spacing:0px;word-spacing:0px;fill:#FFFFFF;fill-opacity:1;stroke:none;font-family:DejaVu Sans"
       x="1096"
       y="822.36212"
       id="text3902-0-7-3-5-1-3-1-9-1-3-0-7"
       sodipodi:linespacing="125%"><tspan
         id="tspan4122-3-2"
         sodipodi:role="line"
         x="1096"
         y="822.36212"
         style="font-size:12px;font-style:normal;font-variant:normal;font-weight:normal;font-stretch:normal;text-align:center;text-anchor:middle;fill:#000000;font-family:DejaVu Sans;-inkscape-font-specification:DejaVu Sans;letter-spacing:-0.45px">Selektoren</tspan></text>
    <path
       sodipodi:type="arc"
       style="fill:#FFFFFF;fill-opacity:1;stroke:#18597a;stroke-width:4;stroke-miterlimit:4;stroke-opacity:1;stroke-dasharray:3.99999995999999980, 7.99999991999999960;stroke-dashoffset:0"
       id="path3900-4-04-3-6-6-8-0-7-4-9-0-6"
       sodipodi:cx="832"
       sodipodi:cy="464"
       sodipodi:rx="64"
       sodipodi:ry="64"
       d="m 896,464 c 0,35.34622 -28.65378,64 -64,64 -35.34622,0 -64,-28.65378 -64,-64 0,-35.34622 28.65378,-64 64,-64 35.34622,0 64,28.65378 64,64 z"
       transform="matrix(0.49999997,0,0,0.50000004,536.00001,668.36222)" />
    <text
       xml:space="preserve"
       style="font-size:26.66666794px;font-style:normal;font-weight:normal;line-height:125%;letter-spacing:0px;word-spacing:0px;fill:#FFFFFF;fill-opacity:1;stroke:none;font-family:DejaVu Sans"
       x="952"
       y="896.36218"
       id="text3902-0-7-3-5-1-3-1-9-1-3-0-6"
       sodipodi:linespacing="125%"><tspan
         id="tspan4122-3-8"
         sodipodi:role="line"
         x="952"
         y="896.36218"
         style="font-size:12px;font-style:normal;font-variant:normal;font-weight:normal;font-stretch:normal;text-align:center;text-anchor:middle;fill:#000000;font-family:DejaVu Sans;-inkscape-font-specification:DejaVu Sans">Trans-</tspan><tspan
         id="tspan4242"
         sodipodi:role="line"
         x="952"
         y="911.36218"
         style="font-size:12px;font-style:normal;font-variant:normal;font-weight:normal;font-stretch:normal;text-align:center;text-anchor:middle;fill:#000000;font-family:DejaVu Sans;-inkscape-font-specification:DejaVu Sans">forms</tspan></text>
    <path
       sodipodi:type="arc"
       style="fill:#FFFFFF;fill-opacity:1;stroke:#18597a;stroke-width:4;stroke-miterlimit:4;stroke-opacity:1;stroke-dasharray:3.99999995999999980, 7.99999991999999960;stroke-dashoffset:0"
       id="path3900-4-04-3-6-6-8-0-7-4-9-0-8-9"
       sodipodi:cx="832"
       sodipodi:cy="464"
       sodipodi:rx="64"
       sodipodi:ry="64"
       d="m 896,464 c 0,35.34622 -28.65378,64 -64,64 -35.34622,0 -64,-28.65378 -64,-64 0,-35.34622 28.65378,-64 64,-64 35.34622,0 64,28.65378 64,64 z"
       transform="matrix(0.49999997,0,0,0.50000004,536.00002,588.36217)" />
    <text
       xml:space="preserve"
       style="font-size:26.66666794px;font-style:normal;font-weight:normal;line-height:125%;letter-spacing:0px;word-spacing:0px;fill:#FFFFFF;fill-opacity:1;stroke:none;font-family:DejaVu Sans"
       x="952"
       y="816.36212"
       id="text3902-0-7-3-5-1-3-1-9-1-3-0-7-6"
       sodipodi:linespacing="125%"><tspan
         id="tspan4122-3-2-5"
         sodipodi:role="line"
         x="952"
         y="816.36212"
         style="font-size:12px;font-style:normal;font-variant:normal;font-weight:normal;font-stretch:normal;text-align:center;text-anchor:middle;fill:#000000;font-family:DejaVu Sans;-inkscape-font-specification:DejaVu Sans">RGBA &amp;</tspan><tspan
         id="tspan4240"
         sodipodi:role="line"
         x="952"
         y="831.36212"
         style="font-size:12px;font-style:normal;font-variant:normal;font-weight:normal;font-stretch:normal;text-align:center;text-anchor:middle;fill:#000000;font-family:DejaVu Sans;-inkscape-font-specification:DejaVu Sans">HSLA</tspan></text>
    <path
       sodipodi:type="arc"
       style="fill:#FFFFFF;fill-opacity:1;stroke:#ff7100;stroke-width:5.33333349;stroke-miterlimit:4;stroke-opacity:1;stroke-dasharray:5.33333333, 5.33333333;stroke-dashoffset:0"
       id="path3900-4-0-5-5-0"
       sodipodi:cx="832"
       sodipodi:cy="464"
       sodipodi:rx="64"
       sodipodi:ry="64"
       d="m 896,464 c 0,35.34622 -28.65378,64 -64,64 -35.34622,0 -64,-28.65378 -64,-64 0,-35.34622 28.65378,-64 64,-64 35.34622,0 64,28.65378 64,64 z"
       transform="matrix(0.75,0,0,0.75,-33.307678,501.98925)" />
    <text
       xml:space="preserve"
       style="font-size:40px;font-style:normal;font-weight:normal;line-height:125%;letter-spacing:0px;word-spacing:0px;fill:#FFFFFF;fill-opacity:1;stroke:none;font-family:DejaVu Sans"
       x="592"
       y="844.36218"
       id="text3902-0-87-5-9-8"
       sodipodi:linespacing="125%"><tspan
         id="tspan3962-5-1-9-0"
         sodipodi:role="line"
         x="592"
         y="844.36218"
         style="font-size:17px;font-style:normal;font-variant:normal;font-weight:bold;font-stretch:normal;text-align:center;text-anchor:middle;fill:#000000;font-family:DejaVu Sans;-inkscape-font-specification:DejaVu Sans Bold">Web</tspan><tspan
         id="tspan4395-1"
         sodipodi:role="line"
         x="592"
         y="865.61218"
         style="font-size:17px;font-style:normal;font-variant:normal;font-weight:bold;font-stretch:normal;text-align:center;text-anchor:middle;fill:#000000;font-family:DejaVu Sans;-inkscape-font-specification:DejaVu Sans Bold">Sockets</tspan></text>
    <g
       id="g4042-7-9"
       transform="translate(80,202)">
      <path
         transform="matrix(0.75,0,0,0.75,430.69232,-168.01075)"
         d="m 896,464 c 0,35.34622 -28.65378,64 -64,64 -35.34622,0 -64,-28.65378 -64,-64 0,-35.34622 28.65378,-64 64,-64 35.34622,0 64,28.65378 64,64 z"
         sodipodi:ry="64"
         sodipodi:rx="64"
         sodipodi:cy="464"
         sodipodi:cx="832"
         id="path3900-4-5-5-82-2"
         style="fill:#FFFFFF;fill-opacity:1;stroke:#ff7100;stroke-width:5.33333349;stroke-miterlimit:4;stroke-opacity:1;stroke-dasharray:5.33333333, 5.33333333;stroke-dashoffset:0"
         sodipodi:type="arc" />
      <text
         sodipodi:linespacing="125%"
         id="text3902-0-8-6-4-0"
         y="172.36218"
         x="1056"
         style="font-size:40px;font-style:normal;font-weight:normal;line-height:125%;letter-spacing:0px;word-spacing:0px;fill:#ffffff;fill-opacity:1;stroke:none;font-family:DejaVu Sans"
         xml:space="preserve"><tspan
           style="font-size:17px;font-style:normal;font-variant:normal;font-weight:bold;font-stretch:normal;text-align:center;text-anchor:middle;fill:#000000;font-family:DejaVu Sans;-inkscape-font-specification:DejaVu Sans Bold"
           y="172.36218"
           x="1056"
           sodipodi:role="line"
           id="tspan4338-8">ECMA-</tspan><tspan
           style="font-size:17px;font-style:normal;font-variant:normal;font-weight:bold;font-stretch:normal;text-align:center;text-anchor:middle;fill:#000000;font-family:DejaVu Sans;-inkscape-font-specification:DejaVu Sans Bold"
           y="193.61218"
           x="1056"
           sodipodi:role="line"
           id="tspan4660-8">Script 6</tspan></text>
    </g>
    <g
       transform="translate(-224,-60.000001)"
       id="g4042-3-1">
      <path
         transform="matrix(0.75,0,0,0.75,430.69232,-168.01075)"
         d="m 896,464 c 0,35.34622 -28.65378,64 -64,64 -35.34622,0 -64,-28.65378 -64,-64 0,-35.34622 28.65378,-64 64,-64 35.34622,0 64,28.65378 64,64 z"
         sodipodi:ry="64"
         sodipodi:rx="64"
         sodipodi:cy="464"
         sodipodi:cx="832"
         id="path3900-4-5-5-8-3"
         style="fill:#FFFFFF;fill-opacity:1;stroke:#ff7100;stroke-width:5.33333349;stroke-miterlimit:4;stroke-opacity:1;stroke-dasharray:5.33333333, 5.33333333;stroke-dashoffset:0"
         sodipodi:type="arc" />
      <text
         sodipodi:linespacing="125%"
         id="text3902-0-8-6-6-4"
         y="184.36218"
         x="1054"
         style="font-size:40px;font-style:normal;font-weight:normal;line-height:125%;letter-spacing:0px;word-spacing:0px;fill:#FFFFFF;fill-opacity:1;stroke:none;font-family:DejaVu Sans"
         xml:space="preserve"><tspan
           style="font-size:17px;font-style:normal;font-variant:normal;font-weight:bold;font-stretch:normal;text-align:center;text-anchor:middle;fill:#000000;font-family:DejaVu Sans;-inkscape-font-specification:DejaVu Sans Bold"
           y="184.36218"
           x="1054"
           sodipodi:role="line"
           id="tspan4004-2-3-9">Polyfills</tspan></text>
    </g>
    <g
       id="g5413-7"
       transform="translate(576,128)">
      <path
         transform="matrix(0.75,0,0,0.75,-336,-191.63782)"
         d="m 896,464 c 0,35.34622 -28.65378,64 -64,64 -35.34622,0 -64,-28.65378 -64,-64 0,-35.34622 28.65378,-64 64,-64 35.34622,0 64,28.65378 64,64 z"
         sodipodi:ry="64"
         sodipodi:rx="64"
         sodipodi:cy="464"
         sodipodi:cx="832"
         id="path3900-4-0-5-4-3-7-5-5"
         style="fill:#FFFFFF;fill-opacity:1;stroke:#18597a;stroke-width:5.33333349;stroke-miterlimit:4;stroke-opacity:1;stroke-dasharray:5.33333333, 5.33333333;stroke-dashoffset:0"
         sodipodi:type="arc" />
      <text
         sodipodi:linespacing="125%"
         id="text3902-0-87-5-3-8-8-4-2"
         y="160.73511"
         x="291.30768"
         style="font-size:40px;font-style:normal;font-weight:normal;line-height:125%;letter-spacing:0px;word-spacing:0px;fill:#FFFFFF;fill-opacity:1;stroke:none;font-family:DejaVu Sans"
         xml:space="preserve"><tspan
           style="font-size:17px;font-style:normal;font-variant:normal;font-weight:bold;font-stretch:normal;text-align:center;text-anchor:middle;fill:#000000;font-family:DejaVu Sans;-inkscape-font-specification:DejaVu Sans Bold"
           y="160.73511"
           x="291.30768"
           sodipodi:role="line"
           id="tspan5382-1">XHR2</tspan></text>
    </g>
    <text
       xml:space="preserve"
       style="font-size:40px;font-style:normal;font-weight:normal;line-height:125%;letter-spacing:0px;word-spacing:0px;fill:#000000;fill-opacity:1;stroke:none;font-family:DejaVu Sans"
       x="180"
       y="562.36218"
       id="text4036"
       sodipodi:linespacing="125%"><tspan
         sodipodi:role="line"
         id="tspan4038"
         x="180"
         y="562.36218"
         style="font-style:normal;font-variant:normal;font-weight:bold;font-stretch:normal;font-family:DejaVu Sans;-inkscape-font-specification:DejaVu Sans Bold">HTML5</tspan></text>
    <text
       xml:space="preserve"
       style="font-size:40px;font-style:normal;font-weight:normal;line-height:125%;letter-spacing:0px;word-spacing:0px;fill:#000000;fill-opacity:1;stroke:none;font-family:DejaVu Sans"
       x="254"
       y="780.36218"
       id="text4036-1"
       sodipodi:linespacing="125%"><tspan
         sodipodi:role="line"
         id="tspan4038-2"
         x="254"
         y="780.36218"
         style="font-style:normal;font-variant:normal;font-weight:bold;font-stretch:normal;font-family:DejaVu Sans;-inkscape-font-specification:DejaVu Sans Bold">WHAT WG</tspan><tspan
         sodipodi:role="line"
         x="254"
         y="830.36218"
         style="font-style:normal;font-variant:normal;font-weight:bold;font-stretch:normal;font-family:DejaVu Sans;-inkscape-font-specification:DejaVu Sans Bold"
         id="tspan4080">HTML5</tspan></text>
    <text
       xml:space="preserve"
       style="font-size:40px;font-style:normal;font-weight:normal;line-height:125%;letter-spacing:0px;word-spacing:0px;fill:#000000;fill-opacity:1;stroke:none;font-family:DejaVu Sans"
       x="506"
       y="964.36218"
       id="text4036-1-6"
       sodipodi:linespacing="125%"><tspan
         sodipodi:role="line"
         x="506"
         y="964.36218"
         style="font-style:normal;font-variant:normal;font-weight:bold;font-stretch:normal;font-family:DejaVu Sans;-inkscape-font-specification:DejaVu Sans Bold"
         id="tspan4080-4">„HTML5“</tspan></text>
    <text
       xml:space="preserve"
       style="font-size:40px;font-style:normal;font-weight:normal;line-height:125%;letter-spacing:0px;word-spacing:0px;fill:#000000;fill-opacity:1;stroke:none;font-family:DejaVu Sans"
       x="690"
       y="1040.3622"
       id="text4036-1-6-9"
       sodipodi:linespacing="125%"><tspan
         sodipodi:role="line"
         x="690"
         y="1040.3622"
         style="font-style:normal;font-variant:normal;font-weight:bold;font-stretch:normal;font-family:DejaVu Sans;-inkscape-font-specification:DejaVu Sans Bold"
         id="tspan4080-4-4"> Webtechnologien</tspan></text>
  </g>
</svg>
